<svg xmlns="http://www.w3.org/2000/svg" fill="none" viewBox="0 0 193 40">
  <g clip-path="url(#clip0)">
    <path fill="#E31836" d="M28.1007 0H11.9018C5.33691 0 0 5.33939 0 11.9001v16.1998C0 34.6598 5.33691 40 11.9018 40h16.1981c6.5591 0 11.8984-5.3402 11.8984-11.9001V11.9001C39.9992 5.33939 34.6598 0 28.1007 0z"/>
    <path fill="#fff" d="M32.6272 24.9161l-.0148.1782c-.057.6941-.4919 1.3964-1.214 1.3964-.5521 0-.9961-.2047-1.3584-.6239-.4349-.501-.826-1.1026-1.2222-2.1927 1.1216-3.8069 4.5818-16.00167 4.5818-16.00167h-6.5665s-.6066 2.85947-1.1537 5.46067c-.0272-.0635-.0553-.1262-.0842-.1865-.5471-1.1694-1.4211-2.4691-2.3916-3.38269-1.6917-1.59027-3.6814-2.36518-6.0837-2.36518-3.3159 0-6.1209 1.22633-8.33755 3.64597-2.2059 2.4048-3.37116 5.4904-3.37116 8.9218 0 3.8218 1.10667 6.961 3.28864 9.3262 2.27607 2.4716 4.99777 3.6228 8.56277 3.6228 2.0772 0 4.0595-.6172 5.8973-1.8328 1.1875-.784 2.2711-1.8701 3.2952-3.2804.43 1.3922.8633 2.3437 1.3815 3.0559.8385 1.1496 2.0945 1.8081 3.4454 1.8081 1.4063 0 2.6871-.7204 3.3448-1.8783.5826-1.0274.8203-2.3024.8203-4.3994v-1.2725h-2.8199zM21.62 27.3539c-.9953 1.4574-2.295 2.2265-3.759 2.2265-1.7058 0-2.9957-.7642-3.9456-2.3437-.9961-1.6538-1.5003-4.132-1.5003-7.3679 0-2.9667.5348-5.3245 1.5886-7.008.9903-1.5804 2.2315-2.3181 3.9051-2.3181 1.4896 0 2.6524.6189 3.6633 1.9525 1.0836 1.431 1.9996 3.7953 2.6557 6.8347-.8236 4.109-1.6291 6.593-2.6078 8.024z"/>
    <path fill="#E31836" d="M60.0239 8.25174C59.57 6.20759 58.281 4.77991 55.452 4.77991c-2.6614 0-4.1196 1.42768-4.5735 3.47183l-2.0541 9.25276h2.196c.501 0 .9994-.3994 1.1067-.8888l.4151-1.8824h5.8189l.4159 1.8824c.1073.4885.6049.8888 1.1058.8888h2.1968l-2.0557-9.25276zm-6.9065 3.87376l.7237-3.2771c.1164-.52981.529-1.33938 1.6118-1.33938 1.0819 0 1.4937.80875 1.6117 1.33938l.7229 3.2771h-4.6701zM67.4925 7.8705h4.8987v9.634h3.032V5.08032h-9.1447c-.9994 0-1.8197.81865-1.8197 1.81968v6.2785c0 .8401-.387 1.3749-1.0596 1.5094l-.6214.1486.5628 2.6688h.5769c2.0747 0 3.575-1.544 3.575-4.17V7.8705M101.779 5.0803h-1.105V3.63611h-2.1223c-.501 0-.9103.40685-.9103.9086v.53559h-1.105c-3.7483 0-6.0912 2.55498-6.0912 6.2117 0 3.6575 2.3429 6.2125 6.0912 6.2125h1.105v1.5061h2.1226c.501 0 .91-.4094.91-.9078v-.5983h1.105c3.749 0 6.091-2.555 6.091-6.2125 0-3.65672-2.342-6.2117-6.091-6.2117zm-5.2426 9.6802c-2.0763 0-3.0584-1.3138-3.0584-3.4685 0-2.15311.9821-3.46691 3.0584-3.46691h1.105v6.93541h-1.105zm5.2426 0h-1.105V7.82509h1.105c2.077 0 3.056 1.3138 3.056 3.46691 0 2.1547-.979 3.4685-3.056 3.4685zM84.8343 8.23107h-4.3524V5.08191h-3.0328V16.5958c0 .5001.4102.9095.9103.9095h6.4749c2.6441 0 4.6346-1.9922 4.6346-4.6371 0-2.6441-1.6703-4.63713-4.6346-4.63713zm0 6.48483h-4.3524v-3.6955h4.3524c.7395 0 1.6027.6619 1.6027 1.8469 0 1.1843-.8632 1.8486-1.6027 1.8486zM119.181 8.25174c-.456-2.04415-1.744-3.47183-4.574-3.47183-2.659 0-4.118 1.42768-4.574 3.47183l-2.054 9.25276h2.198c.499 0 .999-.3994 1.104-.8888l.416-1.8824h5.82l.414 1.8824c.107.4885.606.8888 1.106.8888h2.196l-2.052-9.25276zm-6.907 3.87376l.72-3.2771c.12-.52981.532-1.33938 1.613-1.33938 1.083 0 1.493.80875 1.613 1.33938l.722 3.2771h-4.668zM136.762 28.4919c.534-.5265.879-1.2437.879-2.2381 0-2.2018-1.706-3.7417-3.91-3.7417h-7.415c-.5 0-.909.4085-.909.9094v10.6053c0 .5001.409.9095.909.9095l7.883.0016c2.323 0 3.866-1.662 3.866-3.8638 0-1.1083-.527-1.9765-1.303-2.5822zm-3.034-3.4009c.404 0 .955.4522.955 1.2247 0 .7782-.551 1.1751-.955 1.2238h-5.349v-2.4493h5.349v.0008zm.244 7.2688h-5.594v-2.451h5.594c.403.0495.954.4457.954 1.2247 0 .7716-.551 1.2263-.954 1.2263zM116.728 22.2264c-3.749 0-6.37 2.6697-6.37 6.4981 0 3.8267 2.62 6.4988 6.37 6.4988h1.038c3.75 0 6.37-2.6721 6.37-6.4988 0-3.8284-2.619-6.4981-6.37-6.4981h-1.038zm-3.094 6.4981c0-2.2282 1.187-3.9315 3.277-3.9315h.673c2.089 0 3.275 1.7033 3.275 3.9315s-1.187 3.9331-3.275 3.9331h-.673c-2.091-.0008-3.277-1.7049-3.277-3.9331zM60.1279 22.5121l.3994 1.8791c.1065.5009.6033.9094 1.1034.9094h2.8273v9.6348h3.0336v-9.634h2.7391c.4992 0 .9952-.4085 1.1008-.9094l.3995-1.8791H60.1279M162.291 22.5121v4.9333h-5.901v-4.9333h-3.033v12.4242h3.033v-4.8261h5.901v4.8261h3.034V22.5121h-3.034zM95.4264 25.6851c-.4547-2.045-1.7412-3.471-4.5727-3.471-2.6573 0-4.1172 1.4269-4.5702 3.471l-2.0557 9.2511h2.1968c.5009 0 .9985-.3978 1.1067-.8871l.4142-1.8833h5.8172l.4151 1.8833c.1065.4893.6058.8871 1.1067.8871h2.196l-2.0541-9.2511zm-6.9048 3.8721l.7221-3.2771c.1171-.529.5289-1.3394 1.6117-1.3394 1.0827 0 1.4945.8104 1.6125 1.3411l.7221 3.2746h-4.6684v.0008zM149.962 25.6851c-.455-2.045-1.742-3.471-4.573-3.471-2.66 0-4.117 1.4269-4.572 3.471l-2.054 9.2511h2.198c.499 0 .997-.3978 1.104-.8871l.417-1.8833h5.818l.416 1.8833c.108.4893.605.8871 1.105.8871h2.199l-2.058-9.2511zm-6.908 3.8721l.724-3.2771c.12-.529.53-1.3394 1.611-1.3394s1.494.8104 1.612 1.3411l.723 3.2746h-4.67v.0008zM61.072 34.9023v.0355h-5.9253c-3.5874 0-6.0929-2.5541-6.0929-6.2133 0-3.6575 2.5063-6.2117 6.0929-6.2117h4.4951l-.4398 1.9039c-.1123.4885-.614.8855-1.1149.8855h-2.9404c-1.9171 0-3.06 1.431-3.06 3.4231 0 1.9914 1.1421 3.4232 3.06 3.4232h4.3796c.4993 0 1.0019.3977 1.1141.8863l.4316 1.8675zM79.8614 22.5121l-6.4742.0008c-.5017 0-.9102.4093-.9102.9094v11.5148h3.0336v-3.1517h4.3508c2.9676 0 4.6371-1.9929 4.6371-4.6354 0-2.6433-1.993-4.6379-4.6371-4.6379zm0 6.4848h-4.3508v-3.6922h4.3508c.7402 0 1.6043.6611 1.6043 1.8461 0 1.1834-.8641 1.8461-1.6043 1.8461zM191.035 32.3136h-6.533v-2.3858h7.102v-2.3966h-7.102v-2.3973h6.533c.538 0 .963-.236 1.112-.8863l.404-1.7364h-10.172c-.499 0-.91.4085-.91.9095V34.026c0 .5001.41.9111.91.9111h10.172l-.404-1.7364c-.149-.6494-.573-.8871-1.112-.8871zM167.404 34.9363V22.5121h3.034v8.1972l5.254-7.4644c.296-.4027.946-.7328 1.45-.7328h2.249v12.4242h-3.034v-8.1964l-5.257 7.4635c-.294.4028-.945.7329-1.447.7329h-2.249"/>
    <path fill="#E31836" d="M106.63 28.6585l4.234-6.1457h-2.786c-.602 0-1.025.1832-1.398.7667l-2.255 3.542h-.404l-2.257-3.542c-.37-.5843-.793-.7667-1.398-.7667h-2.8756l4.3246 6.2769-4.2338 6.1465h2.7848c.604 0 1.028-.1816 1.398-.7667l2.257-3.5428h.404l2.255 3.5428c.373.5851.796.7667 1.398.7667h2.876l-4.324-6.2777z"/>
  </g>
  <defs>
    <clipPath id="clip0">
      <path fill="#fff" d="M0 0h192.551v40H0z"/>
    </clipPath>
  </defs>
</svg>
