<svg xmlns="http://www.w3.org/2000/svg" fill="none" viewBox="0 0 200 40">
  <g clip-path="url(#clip0)">
    <path fill="#2E3D8C" fill-rule="evenodd" d="M24.964.61731V10.8451h-3.9383c-4.9963 0-9.0521 4.0558-9.0521 9.0521 0 4.9964 4.0558 9.0522 9.0521 9.0522h3.9383v10.2278c8.9934-1.8222 15.7531-9.7575 15.7531-19.28 0-9.5224-6.7597-17.4577-15.7531-19.27989z" clip-rule="evenodd"/>
    <path fill="#CC525A" fill-rule="evenodd" d="M21.0257 32.1235c-6.7304 0-12.19692-5.4665-12.19692-12.1969 0-6.7303 5.46652-12.19691 12.19692-12.19691h.7935V.235201c-.2645 0-.529-.02939-.7935-.02939-10.8744 0-19.69141 8.817049-19.69141 19.691389 0 10.8744 8.81701 19.6914 19.69141 19.6914.2645 0 .529 0 .7935-.0294v-7.4651h-.7935v.0294zM62.0836 11.0507c-.8229.7054-1.9103 1.1168-3.0859 1.1168-2.6451 0-4.82-2.17485-4.82-4.81997 0-2.64511 2.1749-4.81998 4.82-4.81998 1.205 0 2.3218.44085 3.1741 1.20499l1.7046-1.70463C62.5833.852308 60.8786.117554 58.9977.117554c-3.9971 0-7.23 3.232916-7.23 7.229976 0 3.99707 3.2329 7.22997 7.23 7.22997 1.8222 0 3.4974-.676 4.7906-1.8222l-1.7047-1.7046zM138.998.675903l-5.32 6.407057L128.3.675903l-.03.058781V.675903h-2.145V13.9896h2.145V4.23211l5.408 6.40709 5.32-6.28953v9.63993h2.145V.675903h-2.145zM79.8941 7.34753c0 3.99707-3.233 7.22997-7.23 7.22997-3.9971 0-7.23-3.2329-7.23-7.22997 0-3.99706 3.2329-7.229976 7.23-7.229976 3.997 0 7.23 3.232916 7.23 7.229976zm-2.3806 0c0-2.6745-2.1749-4.81998-4.82-4.81998-2.6745 0-4.82 2.17487-4.82 4.81998 0 2.64512 2.1748 4.81997 4.82 4.81997 2.6451 0 4.82-2.17485 4.82-4.81997zM123.92 7.34753c0 3.99707-3.232 7.22997-7.229 7.22997-3.998 0-7.23-3.2329-7.23-7.22997 0-3.99706 3.232-7.229976 7.23-7.229976 3.997 0 7.229 3.232916 7.229 7.229976zm-2.38 0c0-2.6745-2.175-4.81998-4.82-4.81998-2.675 0-4.82 2.17487-4.82 4.81998 0 2.64512 2.175 4.81997 4.82 4.81997 2.645 0 4.82-2.17485 4.82-4.81997zM109.431.646484h-2.88L101.055 6.26h-2.2336V.675874h-2.1161V13.9896h2.1161V8.40548h2.2046l5.466 5.55472h2.88l-6.495-6.61276 6.554-6.700956z" clip-rule="evenodd"/>
    <path fill="#2E3D8C" fill-rule="evenodd" d="M199.1.646484h-2.88L190.724 6.26h-2.233V.675874h-2.146V13.9896h2.146V8.40548h2.204l5.466 5.55472h2.881l-6.496-6.61276L199.1.646484zM167.8 13.9896h2.351L164.273.675903h-2.41L155.985 13.9896h2.351l1.264-2.8802h6.877l1.323 2.8802zm-7.201-5.02567l2.499-5.58413 2.498 5.58413h-4.997z" clip-rule="evenodd"/>
    <path fill="#CC525A" fill-rule="evenodd" d="M93.972 10.1396c0-1.08747-.4703-2.08674-1.205-2.7921.7347-.70537 1.205-1.70463 1.205-2.79207 0-2.11609-1.7046-3.850108-3.8207-3.850108h-7.759V14.0191h7.7884c2.0867-.0588 3.7913-1.7634 3.7913-3.8795zm-9.4342-7.31819h5.6135c.9405 0 1.7046.76415 1.7046 1.70463 0 .94049-.7641 1.70463-1.7046 1.70463h-5.6135V2.82141zm5.5841 9.02279h-5.6135V8.40554h5.6429c.9405.02939 1.6752.76415 1.6752 1.70466.0294.9698-.7641 1.734-1.7046 1.734z" clip-rule="evenodd"/>
    <path fill="#2E3D8C" fill-rule="evenodd" d="M181.584.705322V6.26006h-7.788V.705322h-2.146V13.9309h2.146V8.40554h7.788v5.52536h2.145V.705322h-2.145zM155.251 10.1396c0-2.11613-1.735-3.85015-3.851-3.85015h-5.613V2.82141h8.17V.705322h-10.316V14.0191h7.789c2.116-.0588 3.821-1.7634 3.821-3.8795zm-3.851 1.7046h-5.613V8.40554h5.643c.94.02939 1.675.76415 1.675 1.70466 0 .9698-.764 1.734-1.705 1.734z" clip-rule="evenodd"/>
    <path fill="#2E3D8C" d="M54.7654 38.9419c-.9405-.4996-1.6458-1.205-2.1749-2.1161-.529-.9111-.7935-1.9103-.7935-3.0271 0-1.1169.2645-2.1455.7935-3.0272.5291-.9111 1.2638-1.5871 2.2043-2.1161.9405-.4997 1.9691-.7642 3.1447-.7642.9111 0 1.7341.147 2.4688.4409.7348.2939 1.3813.7641 1.9104 1.3519l-1.0875 1.0287c-.8817-.9111-1.9397-1.3813-3.2623-1.3813-.8523 0-1.6458.2057-2.3218.5878-.7054.382-1.2344.911-1.6164 1.587-.3821.676-.5879 1.4401-.5879 2.2631 0 .8229.2058 1.587.5879 2.263.382.676.9404 1.205 1.6164 1.5871.7054.382 1.4695.5878 2.3218.5878 1.2932 0 2.3806-.4703 3.2623-1.3814l1.0875 1.0287c-.5291.5878-1.1756 1.058-1.9104 1.3519-.7641.2939-1.5871.4703-2.4982.4703-1.1756.0294-2.2042-.2058-3.1447-.7348zM74.0453 29.4489h-3.9677v10.1102h-1.6164V29.4489h-3.9383v-1.4401h9.5224v1.4401zM85.7426 29.0963c.8523.7053 1.2932 1.7046 1.2932 2.9684 0 1.2637-.4409 2.2336-1.2932 2.9684-.8523.7053-2.0279 1.0874-3.5268 1.0874H79.365v3.4974h-1.6459V28.0382h4.4967c1.4989 0 2.6745.3527 3.5268 1.0581zM84.567 33.975c.5584-.4408.8229-1.0874.8229-1.9103 0-.823-.2645-1.4696-.8229-1.9104-.5584-.4409-1.3519-.676-2.3806-.676h-2.7921v5.1727h2.7921c1.0287 0 1.8222-.2351 2.3806-.676zM97.9102 36.6789h-6.1425l-1.2638 2.8802h-1.7046l5.2314-11.5503h1.6458l5.2605 11.5503h-1.7336l-1.2932-2.8802zm-.5584-1.2932l-2.4982-5.6723-2.4981 5.6723h4.9963zM104.699 28.0382l3.027 4.2322 3.028-4.2322h1.939l-3.909 5.5547 4.233 5.9956h-1.94l-3.38-4.6142-3.292 4.6142h-1.91l4.203-5.9368-3.938-5.6135h1.939zM118.336 38.9419c-.94-.4996-1.675-1.205-2.204-2.1161-.529-.9111-.793-1.9103-.793-3.0271 0-1.1169.264-2.1161.793-3.0272.529-.9111 1.264-1.6165 2.204-2.1161.941-.4997 1.999-.7642 3.145-.7642s2.204.2645 3.145.7642c.94.4996 1.675 1.205 2.204 2.1161.529.9111.794 1.9103.794 3.0272 0 1.1168-.265 2.1454-.794 3.0271-.529.9111-1.264 1.5871-2.204 2.1161-.941.4997-1.969.7642-3.145.7642-1.146 0-2.204-.2351-3.145-.7642zm5.438-1.2637c.676-.3821 1.205-.9111 1.587-1.5871.382-.676.587-1.4401.587-2.2631 0-.8229-.205-1.587-.587-2.263-.382-.676-.911-1.205-1.587-1.5871-.676-.382-1.441-.5878-2.293-.5878-.852 0-1.616.2058-2.292.5878-.676.3821-1.235.9111-1.617 1.5871-.382.676-.588 1.4401-.588 2.263 0 .823.206 1.5871.588 2.2631.382.676.941 1.205 1.617 1.5871.676.382 1.469.5878 2.292.5878.852-.0294 1.617-.2058 2.293-.5878zM140.908 34.5922c.411.4702.617 1.0874.617 1.8516 0 .9993-.353 1.7634-1.087 2.3218-.735.5584-1.793.8229-3.204.8229h-5.29V28.0382h4.967c1.264 0 2.263.2645 2.968.7642.706.4996 1.058 1.2343 1.058 2.2042 0 .6172-.147 1.1756-.47 1.5871-.323.4408-.764.7641-1.322.9992.764.1764 1.352.5291 1.763.9993zm-7.348-1.4695h3.233c.794 0 1.411-.1469 1.852-.4702.411-.3233.647-.7936.647-1.4108 0-.6172-.206-1.0874-.647-1.4107-.441-.3233-1.029-.4996-1.822-.4996h-3.233v3.7913h-.03zm6.29 3.1741c0-.6465-.235-1.1462-.676-1.4695-.441-.3233-1.117-.4702-1.999-.4702h-3.615v3.9089h3.615c1.793 0 2.675-.6466 2.675-1.9692zM153.428 36.6789h-6.142l-1.264 2.8802h-1.705l5.232-11.5503h1.645l5.261 11.5503h-1.763l-1.264-2.8802zm-.558-1.2932l-2.498-5.6723-2.499 5.6723h4.997zM170.034 28.0382v11.5503h-1.646v-5.1432h-6.642v5.1432H160.1V28.0382h1.646v4.9669h6.642v-4.9669h1.646zM175.265 28.0382h1.646v8.9052l6.848-8.9052h1.528v11.5503h-1.617v-8.9052l-6.847 8.9052h-1.558V28.0382zM198.895 38.1484v1.4401h-8.376V28.0382h8.141v1.4401h-6.496v3.5562h5.79v1.4108h-5.79v3.7325h6.731v-.0294zM199.101 21.8075H51.7677v1.7928H199.101v-1.7928z"/>
  </g>
  <defs>
    <clipPath id="clip0">
      <path fill="#fff" d="M0 0h198.295v40H0z" transform="translate(.981567)"/>
    </clipPath>
  </defs>
</svg>
